SBName=SB1



Body
{
  "function_id":"da5c8c43-1397-4525-a5f5-1ab9b84395c9",
   "input":"{\"SBName\":\"SB1\"}"
}

content-type
application/json


url
http://192.168.56.104:7070/v1/executions/
http://10.8.0.2:7070/v1/executions/

method
POST